{
	"utilities": [
		{
			"title": "jq",
			"description": "jq is a lightweight and flexible command-line JSON processor.",
			"example": "curl -s https://howmuchisthe.fish/json/daily | jq -r '.quote.text'",
			"taglist": [ "cli", "json", "data" ],
			"linklist": {
				"Source": "https://github.com/stedolan/jq",
				"Website": "https://stedolan.github.io/jq/",
				"Documentation": "https://stedolan.github.io/jq/manual/"
			}
		},
		{
			"title": "csvq",
			"description": "SQL-like query language for csv",
			"example": "csvq \"SELECT column_1, column_2 FROM myfile\"",
			"taglist": [ "cli", "csv", "data" ],
			"linklist": {
				"Source": "https://github.com/mithrandie/csvq",
				"Website": "https://mithrandie.github.io/csvq/",
				"Documentation": "https://mithrandie.github.io/csvq/"
			}
		},
		{
			"title": "rmw",
			"description": "a safe-remove utility for the command line",
			"example": "rmw file-to-remove",
			"taglist": [ "cli", "trash" ],
			"linklist": {
				"Source": "https://github.com/theimpossibleastronaut/rmw",
				"Website": "https://remove-to-waste.info"
			}
		},
		{
			"title": "ripgrep",
			"description": "a line-oriented search tool that recursively searches your current directory for a regex pattern",
			"example": "rg -i cheese",
			"taglist": [ "cli", "grep", "search", "files", "directories" ],
			"linklist": {
				"Source": "https://github.com/BurntSushi/ripgrep",
				"Getting started": "https://github.com/BurntSushi/ripgrep/blob/master/GUIDE.md"
			}
		},
		{
			"title": "fzf",
			"description": " an interactive Unix filter for command-line that can be used with any list; files, command history, processes, hostnames, bookmarks, git commits, etc",
			"example": "find * -type f | fzf > selected",
			"taglist": [ "cli", "files", "search" ],
			"linklist": {
				"Source": "https://github.com/junegunn/fzf"
			}
		},
		{
			"title": "pandoc",
			"description": "a document converter",
			"example": "pandoc respecttotheman.txt -o intheicecreamvan.odt",
			"taglist": [ "cli", "documents", "conversion" ],
			"linklist": {
				"Website": "https://pandoc.org/"
			}
		}

	]
}